=== Run information ===

Scheme:       weka.associations.FPGrowth -P 2 -I -1 -N 60 -T 0 -C 0.9 -D 0.05 -U 495.0 -M 3.0
Relation:     cancelaciones_ciencias
Instances:    495
Attributes:   218
[list of attributes omitted]
=== Associator model (full training set) ===

FPGrowth found 55 rules (displaying top 55)

 1. [102095M   -LABORATORIO BIOLOGIA GENERAL=1]: 5 ==> [116050M   -LABORATORIO DE QUIMICA GENERAL=1]: 5   <conf:(1)> lift:(29.12) lev:(0.01) conv:(4.83) 
 2. [116003M   -QUIMICA II=1]: 4 ==> [116050M   -LABORATORIO DE QUIMICA GENERAL=1]: 4   <conf:(1)> lift:(29.12) lev:(0.01) conv:(3.86) 
 3. [111071M   -ALGEBRA LINEAL I=1]: 4 ==> [111070M   -CALCULO I=1]: 4   <conf:(1)> lift:(55) lev:(0.01) conv:(3.93) 
 4. [111062M   -CALCULO I=1, 116052M   -QUIMICA I-Q-=1]: 9 ==> [111065M   -GEOMETRIA Y ALGEBRA LINEAL=1]: 9   <conf:(1)> lift:(30.94) lev:(0.02) conv:(8.71) 
 5. [111065M   -GEOMETRIA Y ALGEBRA LINEAL=1, 116053M   -LABORATORIO QUIMICA I-Q-=1]: 6 ==> [111062M   -CALCULO I=1]: 6   <conf:(1)> lift:(26.05) lev:(0.01) conv:(5.77) 
 6. [116050M   -LABORATORIO DE QUIMICA GENERAL=1, 111053M   -MATEMATICAS I-B=1]: 4 ==> [116016M   -QUIMICA GENERAL=1]: 4   <conf:(1)> lift:(41.25) lev:(0.01) conv:(3.9) 
 7. [116016M   -QUIMICA GENERAL=1, 102095M   -LABORATORIO BIOLOGIA GENERAL=1]: 4 ==> [116050M   -LABORATORIO DE QUIMICA GENERAL=1]: 4   <conf:(1)> lift:(29.12) lev:(0.01) conv:(3.86) 
 8. [116050M   -LABORATORIO DE QUIMICA GENERAL=1, 102001M   -BIOLOGIA GENERAL=1]: 4 ==> [116016M   -QUIMICA GENERAL=1]: 4   <conf:(1)> lift:(41.25) lev:(0.01) conv:(3.9) 
 9. [116016M   -QUIMICA GENERAL=1, 102001M   -BIOLOGIA GENERAL=1]: 4 ==> [116050M   -LABORATORIO DE QUIMICA GENERAL=1]: 4   <conf:(1)> lift:(29.12) lev:(0.01) conv:(3.86) 
10. [111053M   -MATEMATICAS I-B=1, 102095M   -LABORATORIO BIOLOGIA GENERAL=1]: 3 ==> [116050M   -LABORATORIO DE QUIMICA GENERAL=1]: 3   <conf:(1)> lift:(29.12) lev:(0.01) conv:(2.9) 
11. [116050M   -LABORATORIO DE QUIMICA GENERAL=1, 102001M   -BIOLOGIA GENERAL=1]: 4 ==> [102095M   -LABORATORIO BIOLOGIA GENERAL=1]: 4   <conf:(1)> lift:(99) lev:(0.01) conv:(3.96) 
12. [102095M   -LABORATORIO BIOLOGIA GENERAL=1, 102001M   -BIOLOGIA GENERAL=1]: 4 ==> [116050M   -LABORATORIO DE QUIMICA GENERAL=1]: 4   <conf:(1)> lift:(29.12) lev:(0.01) conv:(3.86) 
13. [111065M   -GEOMETRIA Y ALGEBRA LINEAL=1, 116053M   -LABORATORIO QUIMICA I-Q-=1]: 6 ==> [116052M   -QUIMICA I-Q-=1]: 6   <conf:(1)> lift:(33) lev:(0.01) conv:(5.82) 
14. [111053M   -MATEMATICAS I-B=1, 102095M   -LABORATORIO BIOLOGIA GENERAL=1]: 3 ==> [116016M   -QUIMICA GENERAL=1]: 3   <conf:(1)> lift:(41.25) lev:(0.01) conv:(2.93) 
15. [116016M   -QUIMICA GENERAL=1, 102095M   -LABORATORIO BIOLOGIA GENERAL=1]: 4 ==> [102001M   -BIOLOGIA GENERAL=1]: 4   <conf:(1)> lift:(99) lev:(0.01) conv:(3.96) 
16. [116016M   -QUIMICA GENERAL=1, 102001M   -BIOLOGIA GENERAL=1]: 4 ==> [102095M   -LABORATORIO BIOLOGIA GENERAL=1]: 4   <conf:(1)> lift:(99) lev:(0.01) conv:(3.96) 
17. [102095M   -LABORATORIO BIOLOGIA GENERAL=1, 102001M   -BIOLOGIA GENERAL=1]: 4 ==> [116016M   -QUIMICA GENERAL=1]: 4   <conf:(1)> lift:(41.25) lev:(0.01) conv:(3.9) 
18. [111053M   -MATEMATICAS I-B=1, 102095M   -LABORATORIO BIOLOGIA GENERAL=1]: 3 ==> [102001M   -BIOLOGIA GENERAL=1]: 3   <conf:(1)> lift:(99) lev:(0.01) conv:(2.97) 
19. [111070M   -CALCULO I=1, 111072M   -PROGRAMACION DE COMPUTADORES=1]: 3 ==> [111071M   -ALGEBRA LINEAL I=1]: 3   <conf:(1)> lift:(123.75) lev:(0.01) conv:(2.98) 
20. [111072M   -PROGRAMACION DE COMPUTADORES=1, 111071M   -ALGEBRA LINEAL I=1]: 3 ==> [111070M   -CALCULO I=1]: 3   <conf:(1)> lift:(55) lev:(0.01) conv:(2.95) 
21. [111065M   -GEOMETRIA Y ALGEBRA LINEAL=1, 116053M   -LABORATORIO QUIMICA I-Q-=1]: 6 ==> [111062M   -CALCULO I=1, 116052M   -QUIMICA I-Q-=1]: 6   <conf:(1)> lift:(55) lev:(0.01) conv:(5.89) 
22. [111062M   -CALCULO I=1, 111065M   -GEOMETRIA Y ALGEBRA LINEAL=1, 116053M   -LABORATORIO QUIMICA I-Q-=1]: 6 ==> [116052M   -QUIMICA I-Q-=1]: 6   <conf:(1)> lift:(33) lev:(0.01) conv:(5.82) 
23. [111062M   -CALCULO I=1, 116052M   -QUIMICA I-Q-=1, 116053M   -LABORATORIO QUIMICA I-Q-=1]: 6 ==> [111065M   -GEOMETRIA Y ALGEBRA LINEAL=1]: 6   <conf:(1)> lift:(30.94) lev:(0.01) conv:(5.81) 
24. [111065M   -GEOMETRIA Y ALGEBRA LINEAL=1, 116052M   -QUIMICA I-Q-=1, 116053M   -LABORATORIO QUIMICA I-Q-=1]: 6 ==> [111062M   -CALCULO I=1]: 6   <conf:(1)> lift:(26.05) lev:(0.01) conv:(5.77) 
25. [111053M   -MATEMATICAS I-B=1, 102095M   -LABORATORIO BIOLOGIA GENERAL=1]: 3 ==> [116050M   -LABORATORIO DE QUIMICA GENERAL=1, 116016M   -QUIMICA GENERAL=1]: 3   <conf:(1)> lift:(61.88) lev:(0.01) conv:(2.95) 
26. [116050M   -LABORATORIO DE QUIMICA GENERAL=1, 111053M   -MATEMATICAS I-B=1, 102095M   -LABORATORIO BIOLOGIA GENERAL=1]: 3 ==> [116016M   -QUIMICA GENERAL=1]: 3   <conf:(1)> lift:(41.25) lev:(0.01) conv:(2.93) 
27. [116016M   -QUIMICA GENERAL=1, 111053M   -MATEMATICAS I-B=1, 102095M   -LABORATORIO BIOLOGIA GENERAL=1]: 3 ==> [116050M   -LABORATORIO DE QUIMICA GENERAL=1]: 3   <conf:(1)> lift:(29.12) lev:(0.01) conv:(2.9) 
28. [116050M   -LABORATORIO DE QUIMICA GENERAL=1, 111053M   -MATEMATICAS I-B=1, 102001M   -BIOLOGIA GENERAL=1]: 3 ==> [116016M   -QUIMICA GENERAL=1]: 3   <conf:(1)> lift:(41.25) lev:(0.01) conv:(2.93) 
29. [116016M   -QUIMICA GENERAL=1, 111053M   -MATEMATICAS I-B=1, 102001M   -BIOLOGIA GENERAL=1]: 3 ==> [116050M   -LABORATORIO DE QUIMICA GENERAL=1]: 3   <conf:(1)> lift:(29.12) lev:(0.01) conv:(2.9) 
30. [116016M   -QUIMICA GENERAL=1, 102095M   -LABORATORIO BIOLOGIA GENERAL=1]: 4 ==> [116050M   -LABORATORIO DE QUIMICA GENERAL=1, 102001M   -BIOLOGIA GENERAL=1]: 4   <conf:(1)> lift:(123.75) lev:(0.01) conv:(3.97) 
31. [116050M   -LABORATORIO DE QUIMICA GENERAL=1, 116016M   -QUIMICA GENERAL=1, 102095M   -LABORATORIO BIOLOGIA GENERAL=1]: 4 ==> [102001M   -BIOLOGIA GENERAL=1]: 4   <conf:(1)> lift:(99) lev:(0.01) conv:(3.96) 
32. [116050M   -LABORATORIO DE QUIMICA GENERAL=1, 102001M   -BIOLOGIA GENERAL=1]: 4 ==> [116016M   -QUIMICA GENERAL=1, 102095M   -LABORATORIO BIOLOGIA GENERAL=1]: 4   <conf:(1)> lift:(123.75) lev:(0.01) conv:(3.97) 
33. [116016M   -QUIMICA GENERAL=1, 102001M   -BIOLOGIA GENERAL=1]: 4 ==> [116050M   -LABORATORIO DE QUIMICA GENERAL=1, 102095M   -LABORATORIO BIOLOGIA GENERAL=1]: 4   <conf:(1)> lift:(99) lev:(0.01) conv:(3.96) 
34. [116050M   -LABORATORIO DE QUIMICA GENERAL=1, 116016M   -QUIMICA GENERAL=1, 102001M   -BIOLOGIA GENERAL=1]: 4 ==> [102095M   -LABORATORIO BIOLOGIA GENERAL=1]: 4   <conf:(1)> lift:(99) lev:(0.01) conv:(3.96) 
35. [102095M   -LABORATORIO BIOLOGIA GENERAL=1, 102001M   -BIOLOGIA GENERAL=1]: 4 ==> [116050M   -LABORATORIO DE QUIMICA GENERAL=1, 116016M   -QUIMICA GENERAL=1]: 4   <conf:(1)> lift:(61.88) lev:(0.01) conv:(3.94) 
36. [116050M   -LABORATORIO DE QUIMICA GENERAL=1, 102095M   -LABORATORIO BIOLOGIA GENERAL=1, 102001M   -BIOLOGIA GENERAL=1]: 4 ==> [116016M   -QUIMICA GENERAL=1]: 4   <conf:(1)> lift:(41.25) lev:(0.01) conv:(3.9) 
37. [116016M   -QUIMICA GENERAL=1, 102095M   -LABORATORIO BIOLOGIA GENERAL=1, 102001M   -BIOLOGIA GENERAL=1]: 4 ==> [116050M   -LABORATORIO DE QUIMICA GENERAL=1]: 4   <conf:(1)> lift:(29.12) lev:(0.01) conv:(3.86) 
38. [111053M   -MATEMATICAS I-B=1, 102095M   -LABORATORIO BIOLOGIA GENERAL=1]: 3 ==> [116050M   -LABORATORIO DE QUIMICA GENERAL=1, 102001M   -BIOLOGIA GENERAL=1]: 3   <conf:(1)> lift:(123.75) lev:(0.01) conv:(2.98) 
39. [116050M   -LABORATORIO DE QUIMICA GENERAL=1, 111053M   -MATEMATICAS I-B=1, 102095M   -LABORATORIO BIOLOGIA GENERAL=1]: 3 ==> [102001M   -BIOLOGIA GENERAL=1]: 3   <conf:(1)> lift:(99) lev:(0.01) conv:(2.97) 
40. [116050M   -LABORATORIO DE QUIMICA GENERAL=1, 111053M   -MATEMATICAS I-B=1, 102001M   -BIOLOGIA GENERAL=1]: 3 ==> [102095M   -LABORATORIO BIOLOGIA GENERAL=1]: 3   <conf:(1)> lift:(99) lev:(0.01) conv:(2.97) 
41. [111053M   -MATEMATICAS I-B=1, 102095M   -LABORATORIO BIOLOGIA GENERAL=1, 102001M   -BIOLOGIA GENERAL=1]: 3 ==> [116050M   -LABORATORIO DE QUIMICA GENERAL=1]: 3   <conf:(1)> lift:(29.12) lev:(0.01) conv:(2.9) 
42. [111053M   -MATEMATICAS I-B=1, 102095M   -LABORATORIO BIOLOGIA GENERAL=1]: 3 ==> [116016M   -QUIMICA GENERAL=1, 102001M   -BIOLOGIA GENERAL=1]: 3   <conf:(1)> lift:(123.75) lev:(0.01) conv:(2.98) 
43. [116016M   -QUIMICA GENERAL=1, 111053M   -MATEMATICAS I-B=1, 102095M   -LABORATORIO BIOLOGIA GENERAL=1]: 3 ==> [102001M   -BIOLOGIA GENERAL=1]: 3   <conf:(1)> lift:(99) lev:(0.01) conv:(2.97) 
44. [116016M   -QUIMICA GENERAL=1, 111053M   -MATEMATICAS I-B=1, 102001M   -BIOLOGIA GENERAL=1]: 3 ==> [102095M   -LABORATORIO BIOLOGIA GENERAL=1]: 3   <conf:(1)> lift:(99) lev:(0.01) conv:(2.97) 
45. [111053M   -MATEMATICAS I-B=1, 102095M   -LABORATORIO BIOLOGIA GENERAL=1, 102001M   -BIOLOGIA GENERAL=1]: 3 ==> [116016M   -QUIMICA GENERAL=1]: 3   <conf:(1)> lift:(41.25) lev:(0.01) conv:(2.93) 
46. [111053M   -MATEMATICAS I-B=1, 102095M   -LABORATORIO BIOLOGIA GENERAL=1]: 3 ==> [116050M   -LABORATORIO DE QUIMICA GENERAL=1, 116016M   -QUIMICA GENERAL=1, 102001M   -BIOLOGIA GENERAL=1]: 3   <conf:(1)> lift:(123.75) lev:(0.01) conv:(2.98) 
47. [116050M   -LABORATORIO DE QUIMICA GENERAL=1, 111053M   -MATEMATICAS I-B=1, 102095M   -LABORATORIO BIOLOGIA GENERAL=1]: 3 ==> [116016M   -QUIMICA GENERAL=1, 102001M   -BIOLOGIA GENERAL=1]: 3   <conf:(1)> lift:(123.75) lev:(0.01) conv:(2.98) 
48. [116016M   -QUIMICA GENERAL=1, 111053M   -MATEMATICAS I-B=1, 102095M   -LABORATORIO BIOLOGIA GENERAL=1]: 3 ==> [116050M   -LABORATORIO DE QUIMICA GENERAL=1, 102001M   -BIOLOGIA GENERAL=1]: 3   <conf:(1)> lift:(123.75) lev:(0.01) conv:(2.98) 
49. [116050M   -LABORATORIO DE QUIMICA GENERAL=1, 116016M   -QUIMICA GENERAL=1, 111053M   -MATEMATICAS I-B=1, 102095M   -LABORATORIO BIOLOGIA GENERAL=1]: 3 ==> [102001M   -BIOLOGIA GENERAL=1]: 3   <conf:(1)> lift:(99) lev:(0.01) conv:(2.97) 
50. [116050M   -LABORATORIO DE QUIMICA GENERAL=1, 111053M   -MATEMATICAS I-B=1, 102001M   -BIOLOGIA GENERAL=1]: 3 ==> [116016M   -QUIMICA GENERAL=1, 102095M   -LABORATORIO BIOLOGIA GENERAL=1]: 3   <conf:(1)> lift:(123.75) lev:(0.01) conv:(2.98) 
51. [116016M   -QUIMICA GENERAL=1, 111053M   -MATEMATICAS I-B=1, 102001M   -BIOLOGIA GENERAL=1]: 3 ==> [116050M   -LABORATORIO DE QUIMICA GENERAL=1, 102095M   -LABORATORIO BIOLOGIA GENERAL=1]: 3   <conf:(1)> lift:(99) lev:(0.01) conv:(2.97) 
52. [116050M   -LABORATORIO DE QUIMICA GENERAL=1, 116016M   -QUIMICA GENERAL=1, 111053M   -MATEMATICAS I-B=1, 102001M   -BIOLOGIA GENERAL=1]: 3 ==> [102095M   -LABORATORIO BIOLOGIA GENERAL=1]: 3   <conf:(1)> lift:(99) lev:(0.01) conv:(2.97) 
53. [111053M   -MATEMATICAS I-B=1, 102095M   -LABORATORIO BIOLOGIA GENERAL=1, 102001M   -BIOLOGIA GENERAL=1]: 3 ==> [116050M   -LABORATORIO DE QUIMICA GENERAL=1, 116016M   -QUIMICA GENERAL=1]: 3   <conf:(1)> lift:(61.88) lev:(0.01) conv:(2.95) 
54. [116050M   -LABORATORIO DE QUIMICA GENERAL=1, 111053M   -MATEMATICAS I-B=1, 102095M   -LABORATORIO BIOLOGIA GENERAL=1, 102001M   -BIOLOGIA GENERAL=1]: 3 ==> [116016M   -QUIMICA GENERAL=1]: 3   <conf:(1)> lift:(41.25) lev:(0.01) conv:(2.93) 
55. [116016M   -QUIMICA GENERAL=1, 111053M   -MATEMATICAS I-B=1, 102095M   -LABORATORIO BIOLOGIA GENERAL=1, 102001M   -BIOLOGIA GENERAL=1]: 3 ==> [116050M   -LABORATORIO DE QUIMICA GENERAL=1]: 3   <conf:(1)> lift:(29.12) lev:(0.01) conv:(2.9)
