=== Run information ===

Scheme:       weka.associations.FPGrowth -P 2 -I -1 -N 50 -T 0 -C 0.9 -D 0.05 -U 495.0 -M 4.0
Relation:     cancelaciones_ciencias
Instances:    495
Attributes:   218
[list of attributes omitted]
=== Associator model (full training set) ===

FPGrowth found 27 rules (displaying top 27)

 1. [102095M   -LABORATORIO BIOLOGIA GENERAL=1]: 5 ==> [116050M   -LABORATORIO DE QUIMICA GENERAL=1]: 5   <conf:(1)> lift:(29.12) lev:(0.01) conv:(4.83) 
 2. [116003M   -QUIMICA II=1]: 4 ==> [116050M   -LABORATORIO DE QUIMICA GENERAL=1]: 4   <conf:(1)> lift:(29.12) lev:(0.01) conv:(3.86) 
 3. [111071M   -ALGEBRA LINEAL I=1]: 4 ==> [111070M   -CALCULO I=1]: 4   <conf:(1)> lift:(55) lev:(0.01) conv:(3.93) 
 4. [111062M   -CALCULO I=1, 116052M   -QUIMICA I-Q-=1]: 9 ==> [111065M   -GEOMETRIA Y ALGEBRA LINEAL=1]: 9   <conf:(1)> lift:(30.94) lev:(0.02) conv:(8.71) 
 5. [111065M   -GEOMETRIA Y ALGEBRA LINEAL=1, 116053M   -LABORATORIO QUIMICA I-Q-=1]: 6 ==> [111062M   -CALCULO I=1]: 6   <conf:(1)> lift:(26.05) lev:(0.01) conv:(5.77) 
 6. [116050M   -LABORATORIO DE QUIMICA GENERAL=1, 111053M   -MATEMATICAS I-B=1]: 4 ==> [116016M   -QUIMICA GENERAL=1]: 4   <conf:(1)> lift:(41.25) lev:(0.01) conv:(3.9) 
 7. [116016M   -QUIMICA GENERAL=1, 102095M   -LABORATORIO BIOLOGIA GENERAL=1]: 4 ==> [116050M   -LABORATORIO DE QUIMICA GENERAL=1]: 4   <conf:(1)> lift:(29.12) lev:(0.01) conv:(3.86) 
 8. [116050M   -LABORATORIO DE QUIMICA GENERAL=1, 102001M   -BIOLOGIA GENERAL=1]: 4 ==> [116016M   -QUIMICA GENERAL=1]: 4   <conf:(1)> lift:(41.25) lev:(0.01) conv:(3.9) 
 9. [116016M   -QUIMICA GENERAL=1, 102001M   -BIOLOGIA GENERAL=1]: 4 ==> [116050M   -LABORATORIO DE QUIMICA GENERAL=1]: 4   <conf:(1)> lift:(29.12) lev:(0.01) conv:(3.86) 
10. [116050M   -LABORATORIO DE QUIMICA GENERAL=1, 102001M   -BIOLOGIA GENERAL=1]: 4 ==> [102095M   -LABORATORIO BIOLOGIA GENERAL=1]: 4   <conf:(1)> lift:(99) lev:(0.01) conv:(3.96) 
11. [102095M   -LABORATORIO BIOLOGIA GENERAL=1, 102001M   -BIOLOGIA GENERAL=1]: 4 ==> [116050M   -LABORATORIO DE QUIMICA GENERAL=1]: 4   <conf:(1)> lift:(29.12) lev:(0.01) conv:(3.86) 
12. [111065M   -GEOMETRIA Y ALGEBRA LINEAL=1, 116053M   -LABORATORIO QUIMICA I-Q-=1]: 6 ==> [116052M   -QUIMICA I-Q-=1]: 6   <conf:(1)> lift:(33) lev:(0.01) conv:(5.82) 
13. [116016M   -QUIMICA GENERAL=1, 102095M   -LABORATORIO BIOLOGIA GENERAL=1]: 4 ==> [102001M   -BIOLOGIA GENERAL=1]: 4   <conf:(1)> lift:(99) lev:(0.01) conv:(3.96) 
14. [116016M   -QUIMICA GENERAL=1, 102001M   -BIOLOGIA GENERAL=1]: 4 ==> [102095M   -LABORATORIO BIOLOGIA GENERAL=1]: 4   <conf:(1)> lift:(99) lev:(0.01) conv:(3.96) 
15. [102095M   -LABORATORIO BIOLOGIA GENERAL=1, 102001M   -BIOLOGIA GENERAL=1]: 4 ==> [116016M   -QUIMICA GENERAL=1]: 4   <conf:(1)> lift:(41.25) lev:(0.01) conv:(3.9) 
16. [111065M   -GEOMETRIA Y ALGEBRA LINEAL=1, 116053M   -LABORATORIO QUIMICA I-Q-=1]: 6 ==> [111062M   -CALCULO I=1, 116052M   -QUIMICA I-Q-=1]: 6   <conf:(1)> lift:(55) lev:(0.01) conv:(5.89) 
17. [111062M   -CALCULO I=1, 111065M   -GEOMETRIA Y ALGEBRA LINEAL=1, 116053M   -LABORATORIO QUIMICA I-Q-=1]: 6 ==> [116052M   -QUIMICA I-Q-=1]: 6   <conf:(1)> lift:(33) lev:(0.01) conv:(5.82) 
18. [111062M   -CALCULO I=1, 116052M   -QUIMICA I-Q-=1, 116053M   -LABORATORIO QUIMICA I-Q-=1]: 6 ==> [111065M   -GEOMETRIA Y ALGEBRA LINEAL=1]: 6   <conf:(1)> lift:(30.94) lev:(0.01) conv:(5.81) 
19. [111065M   -GEOMETRIA Y ALGEBRA LINEAL=1, 116052M   -QUIMICA I-Q-=1, 116053M   -LABORATORIO QUIMICA I-Q-=1]: 6 ==> [111062M   -CALCULO I=1]: 6   <conf:(1)> lift:(26.05) lev:(0.01) conv:(5.77) 
20. [116016M   -QUIMICA GENERAL=1, 102095M   -LABORATORIO BIOLOGIA GENERAL=1]: 4 ==> [116050M   -LABORATORIO DE QUIMICA GENERAL=1, 102001M   -BIOLOGIA GENERAL=1]: 4   <conf:(1)> lift:(123.75) lev:(0.01) conv:(3.97) 
21. [116050M   -LABORATORIO DE QUIMICA GENERAL=1, 116016M   -QUIMICA GENERAL=1, 102095M   -LABORATORIO BIOLOGIA GENERAL=1]: 4 ==> [102001M   -BIOLOGIA GENERAL=1]: 4   <conf:(1)> lift:(99) lev:(0.01) conv:(3.96) 
22. [116050M   -LABORATORIO DE QUIMICA GENERAL=1, 102001M   -BIOLOGIA GENERAL=1]: 4 ==> [116016M   -QUIMICA GENERAL=1, 102095M   -LABORATORIO BIOLOGIA GENERAL=1]: 4   <conf:(1)> lift:(123.75) lev:(0.01) conv:(3.97) 
23. [116016M   -QUIMICA GENERAL=1, 102001M   -BIOLOGIA GENERAL=1]: 4 ==> [116050M   -LABORATORIO DE QUIMICA GENERAL=1, 102095M   -LABORATORIO BIOLOGIA GENERAL=1]: 4   <conf:(1)> lift:(99) lev:(0.01) conv:(3.96) 
24. [116050M   -LABORATORIO DE QUIMICA GENERAL=1, 116016M   -QUIMICA GENERAL=1, 102001M   -BIOLOGIA GENERAL=1]: 4 ==> [102095M   -LABORATORIO BIOLOGIA GENERAL=1]: 4   <conf:(1)> lift:(99) lev:(0.01) conv:(3.96) 
25. [102095M   -LABORATORIO BIOLOGIA GENERAL=1, 102001M   -BIOLOGIA GENERAL=1]: 4 ==> [116050M   -LABORATORIO DE QUIMICA GENERAL=1, 116016M   -QUIMICA GENERAL=1]: 4   <conf:(1)> lift:(61.88) lev:(0.01) conv:(3.94) 
26. [116050M   -LABORATORIO DE QUIMICA GENERAL=1, 102095M   -LABORATORIO BIOLOGIA GENERAL=1, 102001M   -BIOLOGIA GENERAL=1]: 4 ==> [116016M   -QUIMICA GENERAL=1]: 4   <conf:(1)> lift:(41.25) lev:(0.01) conv:(3.9) 
27. [116016M   -QUIMICA GENERAL=1, 102095M   -LABORATORIO BIOLOGIA GENERAL=1, 102001M   -BIOLOGIA GENERAL=1]: 4 ==> [116050M   -LABORATORIO DE QUIMICA GENERAL=1]: 4   <conf:(1)> lift:(29.12) lev:(0.01) conv:(3.86) 
