=== Run information ===

Scheme:       weka.associations.FPGrowth -P 2 -I -1 -N 100 -T 0 -C 0.9 -D 0.05 -U 1272.0 -M 3.0
Relation:     cancelaciones_humanidades
Instances:    1272
Attributes:   376
[list of attributes omitted]
=== Associator model (full training set) ===

FPGrowth found 18 rules (displaying top 18)

 1. [204160M   -ASPECTOS FORMALES DEL ESPANOL=1, 203001M   -INTRODUCCION A LA ETICA=1]: 4 ==> [203406M   -CONSTITUCION POLITICA DE COLOMBIA: DERECHOS FUNDAMENTALES=1]: 4   <conf:(1)> lift:(97.85) lev:(0) conv:(3.96) 
 2. [203001M   -INTRODUCCION A LA ETICA=1, 203406M   -CONSTITUCION POLITICA DE COLOMBIA: DERECHOS FUNDAMENTALES=1]: 4 ==> [204160M   -ASPECTOS FORMALES DEL ESPANOL=1]: 4   <conf:(1)> lift:(39.75) lev:(0) conv:(3.9) 
 3. [204251M   -SEMINARIO DE ENSENANZA DEL ESPANOL=1, 204196M   -COMPOSICION ESCRITA EN INGLES VII LE=1]: 3 ==> [204207M   -COMPOSICION EN FRANCES VII LE=1]: 3   <conf:(1)> lift:(57.82) lev:(0) conv:(2.95) 
 4. [204207M   -COMPOSICION EN FRANCES VII LE=1, 204050M   -CREATIVE WRITING=1]: 3 ==> [204196M   -COMPOSICION ESCRITA EN INGLES VII LE=1]: 3   <conf:(1)> lift:(57.82) lev:(0) conv:(2.95) 
 5. [204196M   -COMPOSICION ESCRITA EN INGLES VII LE=1, 204050M   -CREATIVE WRITING=1]: 3 ==> [204207M   -COMPOSICION EN FRANCES VII LE=1]: 3   <conf:(1)> lift:(57.82) lev:(0) conv:(2.95) 
 6. [201165M   -INTRODUCCION A LA PEDAGOGIA=1, 201046M   -SOCIEDADES ORIGINARIAS=1]: 5 ==> [201135M   -HISTORIA ANTIGUA UNIVERSAL (LH)=1]: 5   <conf:(1)> lift:(181.71) lev:(0) conv:(4.97) 
 7. [201165M   -INTRODUCCION A LA PEDAGOGIA=1, 201135M   -HISTORIA ANTIGUA UNIVERSAL (LH)=1]: 5 ==> [201046M   -SOCIEDADES ORIGINARIAS=1]: 5   <conf:(1)> lift:(141.33) lev:(0) conv:(4.96) 
 8. [201177M   -CIENCIAS Y TECNICAS HISTORIOGRAFICAS=1, 201165M   -INTRODUCCION A LA PEDAGOGIA=1, 201046M   -SOCIEDADES ORIGINARIAS=1]: 4 ==> [201135M   -HISTORIA ANTIGUA UNIVERSAL (LH)=1]: 4   <conf:(1)> lift:(181.71) lev:(0) conv:(3.98) 
 9. [201177M   -CIENCIAS Y TECNICAS HISTORIOGRAFICAS=1, 201165M   -INTRODUCCION A LA PEDAGOGIA=1, 201135M   -HISTORIA ANTIGUA UNIVERSAL (LH)=1]: 4 ==> [201046M   -SOCIEDADES ORIGINARIAS=1]: 4   <conf:(1)> lift:(141.33) lev:(0) conv:(3.97) 
10. [201177M   -CIENCIAS Y TECNICAS HISTORIOGRAFICAS=1, 201165M   -INTRODUCCION A LA PEDAGOGIA=1, 201134M   -INTRODUCCION A LAS CIENCIAS SOCIALES (LH)=1]: 3 ==> [201046M   -SOCIEDADES ORIGINARIAS=1]: 3   <conf:(1)> lift:(141.33) lev:(0) conv:(2.98) 
11. [201177M   -CIENCIAS Y TECNICAS HISTORIOGRAFICAS=1, 201165M   -INTRODUCCION A LA PEDAGOGIA=1, 201134M   -INTRODUCCION A LAS CIENCIAS SOCIALES (LH)=1]: 3 ==> [201135M   -HISTORIA ANTIGUA UNIVERSAL (LH)=1]: 3   <conf:(1)> lift:(181.71) lev:(0) conv:(2.98) 
12. [201165M   -INTRODUCCION A LA PEDAGOGIA=1, 201046M   -SOCIEDADES ORIGINARIAS=1, 201134M   -INTRODUCCION A LAS CIENCIAS SOCIALES (LH)=1]: 4 ==> [201135M   -HISTORIA ANTIGUA UNIVERSAL (LH)=1]: 4   <conf:(1)> lift:(181.71) lev:(0) conv:(3.98) 
13. [201165M   -INTRODUCCION A LA PEDAGOGIA=1, 201135M   -HISTORIA ANTIGUA UNIVERSAL (LH)=1, 201134M   -INTRODUCCION A LAS CIENCIAS SOCIALES (LH)=1]: 4 ==> [201046M   -SOCIEDADES ORIGINARIAS=1]: 4   <conf:(1)> lift:(141.33) lev:(0) conv:(3.97) 
14. [201046M   -SOCIEDADES ORIGINARIAS=1, 201135M   -HISTORIA ANTIGUA UNIVERSAL (LH)=1, 201134M   -INTRODUCCION A LAS CIENCIAS SOCIALES (LH)=1]: 4 ==> [201165M   -INTRODUCCION A LA PEDAGOGIA=1]: 4   <conf:(1)> lift:(141.33) lev:(0) conv:(3.97) 
15. [201177M   -CIENCIAS Y TECNICAS HISTORIOGRAFICAS=1, 201165M   -INTRODUCCION A LA PEDAGOGIA=1, 201134M   -INTRODUCCION A LAS CIENCIAS SOCIALES (LH)=1]: 3 ==> [201046M   -SOCIEDADES ORIGINARIAS=1, 201135M   -HISTORIA ANTIGUA UNIVERSAL (LH)=1]: 3   <conf:(1)> lift:(212) lev:(0) conv:(2.99) 
16. [201177M   -CIENCIAS Y TECNICAS HISTORIOGRAFICAS=1, 201165M   -INTRODUCCION A LA PEDAGOGIA=1, 201046M   -SOCIEDADES ORIGINARIAS=1, 201134M   -INTRODUCCION A LAS CIENCIAS SOCIALES (LH)=1]: 3 ==> [201135M   -HISTORIA ANTIGUA UNIVERSAL (LH)=1]: 3   <conf:(1)> lift:(181.71) lev:(0) conv:(2.98) 
17. [201177M   -CIENCIAS Y TECNICAS HISTORIOGRAFICAS=1, 201165M   -INTRODUCCION A LA PEDAGOGIA=1, 201135M   -HISTORIA ANTIGUA UNIVERSAL (LH)=1, 201134M   -INTRODUCCION A LAS CIENCIAS SOCIALES (LH)=1]: 3 ==> [201046M   -SOCIEDADES ORIGINARIAS=1]: 3   <conf:(1)> lift:(141.33) lev:(0) conv:(2.98) 
18. [201177M   -CIENCIAS Y TECNICAS HISTORIOGRAFICAS=1, 201046M   -SOCIEDADES ORIGINARIAS=1, 201135M   -HISTORIA ANTIGUA UNIVERSAL (LH)=1, 201134M   -INTRODUCCION A LAS CIENCIAS SOCIALES (LH)=1]: 3 ==> [201165M   -INTRODUCCION A LA PEDAGOGIA=1]: 3   <conf:(1)> lift:(141.33) lev:(0) conv:(2.98) 

