=== Run information ===

Scheme:       weka.associations.FPGrowth -P 2 -I -1 -N 100 -T 0 -C 0.7 -D 0.05 -U 1272.0 -M 4.0
Relation:     cancelaciones_humanidades
Instances:    1272
Attributes:   376
[list of attributes omitted]
=== Associator model (full training set) ===

FPGrowth found 50 rules (displaying top 50)

 1. [204160M   -ASPECTOS FORMALES DEL ESPANOL=1, 203001M   -INTRODUCCION A LA ETICA=1]: 4 ==> [203406M   -CONSTITUCION POLITICA DE COLOMBIA: DERECHOS FUNDAMENTALES=1]: 4   <conf:(1)> lift:(97.85) lev:(0) conv:(3.96) 
 2. [203001M   -INTRODUCCION A LA ETICA=1, 203406M   -CONSTITUCION POLITICA DE COLOMBIA: DERECHOS FUNDAMENTALES=1]: 4 ==> [204160M   -ASPECTOS FORMALES DEL ESPANOL=1]: 4   <conf:(1)> lift:(39.75) lev:(0) conv:(3.9) 
 3. [201165M   -INTRODUCCION A LA PEDAGOGIA=1, 201046M   -SOCIEDADES ORIGINARIAS=1]: 5 ==> [201135M   -HISTORIA ANTIGUA UNIVERSAL (LH)=1]: 5   <conf:(1)> lift:(181.71) lev:(0) conv:(4.97) 
 4. [201165M   -INTRODUCCION A LA PEDAGOGIA=1, 201135M   -HISTORIA ANTIGUA UNIVERSAL (LH)=1]: 5 ==> [201046M   -SOCIEDADES ORIGINARIAS=1]: 5   <conf:(1)> lift:(141.33) lev:(0) conv:(4.96) 
 5. [201177M   -CIENCIAS Y TECNICAS HISTORIOGRAFICAS=1, 201165M   -INTRODUCCION A LA PEDAGOGIA=1, 201046M   -SOCIEDADES ORIGINARIAS=1]: 4 ==> [201135M   -HISTORIA ANTIGUA UNIVERSAL (LH)=1]: 4   <conf:(1)> lift:(181.71) lev:(0) conv:(3.98) 
 6. [201177M   -CIENCIAS Y TECNICAS HISTORIOGRAFICAS=1, 201165M   -INTRODUCCION A LA PEDAGOGIA=1, 201135M   -HISTORIA ANTIGUA UNIVERSAL (LH)=1]: 4 ==> [201046M   -SOCIEDADES ORIGINARIAS=1]: 4   <conf:(1)> lift:(141.33) lev:(0) conv:(3.97) 
 7. [201165M   -INTRODUCCION A LA PEDAGOGIA=1, 201046M   -SOCIEDADES ORIGINARIAS=1, 201134M   -INTRODUCCION A LAS CIENCIAS SOCIALES (LH)=1]: 4 ==> [201135M   -HISTORIA ANTIGUA UNIVERSAL (LH)=1]: 4   <conf:(1)> lift:(181.71) lev:(0) conv:(3.98) 
 8. [201165M   -INTRODUCCION A LA PEDAGOGIA=1, 201135M   -HISTORIA ANTIGUA UNIVERSAL (LH)=1, 201134M   -INTRODUCCION A LAS CIENCIAS SOCIALES (LH)=1]: 4 ==> [201046M   -SOCIEDADES ORIGINARIAS=1]: 4   <conf:(1)> lift:(141.33) lev:(0) conv:(3.97) 
 9. [201046M   -SOCIEDADES ORIGINARIAS=1, 201135M   -HISTORIA ANTIGUA UNIVERSAL (LH)=1, 201134M   -INTRODUCCION A LAS CIENCIAS SOCIALES (LH)=1]: 4 ==> [201165M   -INTRODUCCION A LA PEDAGOGIA=1]: 4   <conf:(1)> lift:(141.33) lev:(0) conv:(3.97) 
10. [201135M   -HISTORIA ANTIGUA UNIVERSAL (LH)=1]: 7 ==> [201177M   -CIENCIAS Y TECNICAS HISTORIOGRAFICAS=1]: 6   <conf:(0.86)> lift:(83.87) lev:(0) conv:(3.46) 
11. [201135M   -HISTORIA ANTIGUA UNIVERSAL (LH)=1]: 7 ==> [201046M   -SOCIEDADES ORIGINARIAS=1]: 6   <conf:(0.86)> lift:(121.14) lev:(0) conv:(3.48) 
12. [201177M   -CIENCIAS Y TECNICAS HISTORIOGRAFICAS=1, 201046M   -SOCIEDADES ORIGINARIAS=1]: 6 ==> [201135M   -HISTORIA ANTIGUA UNIVERSAL (LH)=1]: 5   <conf:(0.83)> lift:(151.43) lev:(0) conv:(2.98) 
13. [201177M   -CIENCIAS Y TECNICAS HISTORIOGRAFICAS=1, 201135M   -HISTORIA ANTIGUA UNIVERSAL (LH)=1]: 6 ==> [201046M   -SOCIEDADES ORIGINARIAS=1]: 5   <conf:(0.83)> lift:(117.78) lev:(0) conv:(2.98) 
14. [201046M   -SOCIEDADES ORIGINARIAS=1, 201135M   -HISTORIA ANTIGUA UNIVERSAL (LH)=1]: 6 ==> [201177M   -CIENCIAS Y TECNICAS HISTORIOGRAFICAS=1]: 5   <conf:(0.83)> lift:(81.54) lev:(0) conv:(2.97) 
15. [201046M   -SOCIEDADES ORIGINARIAS=1, 201135M   -HISTORIA ANTIGUA UNIVERSAL (LH)=1]: 6 ==> [201165M   -INTRODUCCION A LA PEDAGOGIA=1]: 5   <conf:(0.83)> lift:(117.78) lev:(0) conv:(2.98) 
16. [201177M   -CIENCIAS Y TECNICAS HISTORIOGRAFICAS=1, 201165M   -INTRODUCCION A LA PEDAGOGIA=1]: 5 ==> [201046M   -SOCIEDADES ORIGINARIAS=1]: 4   <conf:(0.8)> lift:(113.07) lev:(0) conv:(2.48) 
17. [201165M   -INTRODUCCION A LA PEDAGOGIA=1, 201046M   -SOCIEDADES ORIGINARIAS=1]: 5 ==> [201177M   -CIENCIAS Y TECNICAS HISTORIOGRAFICAS=1]: 4   <conf:(0.8)> lift:(78.28) lev:(0) conv:(2.47) 
18. [201177M   -CIENCIAS Y TECNICAS HISTORIOGRAFICAS=1, 201165M   -INTRODUCCION A LA PEDAGOGIA=1]: 5 ==> [201135M   -HISTORIA ANTIGUA UNIVERSAL (LH)=1]: 4   <conf:(0.8)> lift:(145.37) lev:(0) conv:(2.49) 
19. [201165M   -INTRODUCCION A LA PEDAGOGIA=1, 201135M   -HISTORIA ANTIGUA UNIVERSAL (LH)=1]: 5 ==> [201177M   -CIENCIAS Y TECNICAS HISTORIOGRAFICAS=1]: 4   <conf:(0.8)> lift:(78.28) lev:(0) conv:(2.47) 
20. [201177M   -CIENCIAS Y TECNICAS HISTORIOGRAFICAS=1, 201134M   -INTRODUCCION A LAS CIENCIAS SOCIALES (LH)=1]: 5 ==> [201046M   -SOCIEDADES ORIGINARIAS=1]: 4   <conf:(0.8)> lift:(113.07) lev:(0) conv:(2.48) 
21. [201046M   -SOCIEDADES ORIGINARIAS=1, 201134M   -INTRODUCCION A LAS CIENCIAS SOCIALES (LH)=1]: 5 ==> [201177M   -CIENCIAS Y TECNICAS HISTORIOGRAFICAS=1]: 4   <conf:(0.8)> lift:(78.28) lev:(0) conv:(2.47) 
22. [201177M   -CIENCIAS Y TECNICAS HISTORIOGRAFICAS=1, 201134M   -INTRODUCCION A LAS CIENCIAS SOCIALES (LH)=1]: 5 ==> [201135M   -HISTORIA ANTIGUA UNIVERSAL (LH)=1]: 4   <conf:(0.8)> lift:(145.37) lev:(0) conv:(2.49) 
23. [201135M   -HISTORIA ANTIGUA UNIVERSAL (LH)=1, 201134M   -INTRODUCCION A LAS CIENCIAS SOCIALES (LH)=1]: 5 ==> [201177M   -CIENCIAS Y TECNICAS HISTORIOGRAFICAS=1]: 4   <conf:(0.8)> lift:(78.28) lev:(0) conv:(2.47) 
24. [201165M   -INTRODUCCION A LA PEDAGOGIA=1, 201046M   -SOCIEDADES ORIGINARIAS=1]: 5 ==> [201134M   -INTRODUCCION A LAS CIENCIAS SOCIALES (LH)=1]: 4   <conf:(0.8)> lift:(145.37) lev:(0) conv:(2.49) 
25. [201165M   -INTRODUCCION A LA PEDAGOGIA=1, 201134M   -INTRODUCCION A LAS CIENCIAS SOCIALES (LH)=1]: 5 ==> [201046M   -SOCIEDADES ORIGINARIAS=1]: 4   <conf:(0.8)> lift:(113.07) lev:(0) conv:(2.48) 
26. [201046M   -SOCIEDADES ORIGINARIAS=1, 201134M   -INTRODUCCION A LAS CIENCIAS SOCIALES (LH)=1]: 5 ==> [201165M   -INTRODUCCION A LA PEDAGOGIA=1]: 4   <conf:(0.8)> lift:(113.07) lev:(0) conv:(2.48) 
27. [201165M   -INTRODUCCION A LA PEDAGOGIA=1, 201135M   -HISTORIA ANTIGUA UNIVERSAL (LH)=1]: 5 ==> [201134M   -INTRODUCCION A LAS CIENCIAS SOCIALES (LH)=1]: 4   <conf:(0.8)> lift:(145.37) lev:(0) conv:(2.49) 
28. [201165M   -INTRODUCCION A LA PEDAGOGIA=1, 201134M   -INTRODUCCION A LAS CIENCIAS SOCIALES (LH)=1]: 5 ==> [201135M   -HISTORIA ANTIGUA UNIVERSAL (LH)=1]: 4   <conf:(0.8)> lift:(145.37) lev:(0) conv:(2.49) 
29. [201135M   -HISTORIA ANTIGUA UNIVERSAL (LH)=1, 201134M   -INTRODUCCION A LAS CIENCIAS SOCIALES (LH)=1]: 5 ==> [201165M   -INTRODUCCION A LA PEDAGOGIA=1]: 4   <conf:(0.8)> lift:(113.07) lev:(0) conv:(2.48) 
30. [201046M   -SOCIEDADES ORIGINARIAS=1, 201134M   -INTRODUCCION A LAS CIENCIAS SOCIALES (LH)=1]: 5 ==> [201135M   -HISTORIA ANTIGUA UNIVERSAL (LH)=1]: 4   <conf:(0.8)> lift:(145.37) lev:(0) conv:(2.49) 
31. [201135M   -HISTORIA ANTIGUA UNIVERSAL (LH)=1, 201134M   -INTRODUCCION A LAS CIENCIAS SOCIALES (LH)=1]: 5 ==> [201046M   -SOCIEDADES ORIGINARIAS=1]: 4   <conf:(0.8)> lift:(113.07) lev:(0) conv:(2.48) 
32. [201177M   -CIENCIAS Y TECNICAS HISTORIOGRAFICAS=1, 201165M   -INTRODUCCION A LA PEDAGOGIA=1]: 5 ==> [201046M   -SOCIEDADES ORIGINARIAS=1, 201135M   -HISTORIA ANTIGUA UNIVERSAL (LH)=1]: 4   <conf:(0.8)> lift:(169.6) lev:(0) conv:(2.49) 
33. [201165M   -INTRODUCCION A LA PEDAGOGIA=1, 201046M   -SOCIEDADES ORIGINARIAS=1]: 5 ==> [201177M   -CIENCIAS Y TECNICAS HISTORIOGRAFICAS=1, 201135M   -HISTORIA ANTIGUA UNIVERSAL (LH)=1]: 4   <conf:(0.8)> lift:(169.6) lev:(0) conv:(2.49) 
34. [201165M   -INTRODUCCION A LA PEDAGOGIA=1, 201135M   -HISTORIA ANTIGUA UNIVERSAL (LH)=1]: 5 ==> [201177M   -CIENCIAS Y TECNICAS HISTORIOGRAFICAS=1, 201046M   -SOCIEDADES ORIGINARIAS=1]: 4   <conf:(0.8)> lift:(169.6) lev:(0) conv:(2.49) 
35. [201177M   -CIENCIAS Y TECNICAS HISTORIOGRAFICAS=1, 201046M   -SOCIEDADES ORIGINARIAS=1, 201135M   -HISTORIA ANTIGUA UNIVERSAL (LH)=1]: 5 ==> [201165M   -INTRODUCCION A LA PEDAGOGIA=1]: 4   <conf:(0.8)> lift:(113.07) lev:(0) conv:(2.48) 
36. [201165M   -INTRODUCCION A LA PEDAGOGIA=1, 201046M   -SOCIEDADES ORIGINARIAS=1, 201135M   -HISTORIA ANTIGUA UNIVERSAL (LH)=1]: 5 ==> [201177M   -CIENCIAS Y TECNICAS HISTORIOGRAFICAS=1]: 4   <conf:(0.8)> lift:(78.28) lev:(0) conv:(2.47) 
37. [201165M   -INTRODUCCION A LA PEDAGOGIA=1, 201046M   -SOCIEDADES ORIGINARIAS=1]: 5 ==> [201135M   -HISTORIA ANTIGUA UNIVERSAL (LH)=1, 201134M   -INTRODUCCION A LAS CIENCIAS SOCIALES (LH)=1]: 4   <conf:(0.8)> lift:(203.52) lev:(0) conv:(2.49) 
38. [201165M   -INTRODUCCION A LA PEDAGOGIA=1, 201135M   -HISTORIA ANTIGUA UNIVERSAL (LH)=1]: 5 ==> [201046M   -SOCIEDADES ORIGINARIAS=1, 201134M   -INTRODUCCION A LAS CIENCIAS SOCIALES (LH)=1]: 4   <conf:(0.8)> lift:(203.52) lev:(0) conv:(2.49) 
39. [201165M   -INTRODUCCION A LA PEDAGOGIA=1, 201046M   -SOCIEDADES ORIGINARIAS=1, 201135M   -HISTORIA ANTIGUA UNIVERSAL (LH)=1]: 5 ==> [201134M   -INTRODUCCION A LAS CIENCIAS SOCIALES (LH)=1]: 4   <conf:(0.8)> lift:(145.37) lev:(0) conv:(2.49) 
40. [201165M   -INTRODUCCION A LA PEDAGOGIA=1, 201134M   -INTRODUCCION A LAS CIENCIAS SOCIALES (LH)=1]: 5 ==> [201046M   -SOCIEDADES ORIGINARIAS=1, 201135M   -HISTORIA ANTIGUA UNIVERSAL (LH)=1]: 4   <conf:(0.8)> lift:(169.6) lev:(0) conv:(2.49) 
41. [201046M   -SOCIEDADES ORIGINARIAS=1, 201134M   -INTRODUCCION A LAS CIENCIAS SOCIALES (LH)=1]: 5 ==> [201165M   -INTRODUCCION A LA PEDAGOGIA=1, 201135M   -HISTORIA ANTIGUA UNIVERSAL (LH)=1]: 4   <conf:(0.8)> lift:(203.52) lev:(0) conv:(2.49) 
42. [201135M   -HISTORIA ANTIGUA UNIVERSAL (LH)=1, 201134M   -INTRODUCCION A LAS CIENCIAS SOCIALES (LH)=1]: 5 ==> [201165M   -INTRODUCCION A LA PEDAGOGIA=1, 201046M   -SOCIEDADES ORIGINARIAS=1]: 4   <conf:(0.8)> lift:(203.52) lev:(0) conv:(2.49) 
43. [201134M   -INTRODUCCION A LAS CIENCIAS SOCIALES (LH)=1]: 7 ==> [201177M   -CIENCIAS Y TECNICAS HISTORIOGRAFICAS=1]: 5   <conf:(0.71)> lift:(69.89) lev:(0) conv:(2.31) 
44. [201135M   -HISTORIA ANTIGUA UNIVERSAL (LH)=1]: 7 ==> [201165M   -INTRODUCCION A LA PEDAGOGIA=1]: 5   <conf:(0.71)> lift:(100.95) lev:(0) conv:(2.32) 
45. [201134M   -INTRODUCCION A LAS CIENCIAS SOCIALES (LH)=1]: 7 ==> [201165M   -INTRODUCCION A LA PEDAGOGIA=1]: 5   <conf:(0.71)> lift:(100.95) lev:(0) conv:(2.32) 
46. [201134M   -INTRODUCCION A LAS CIENCIAS SOCIALES (LH)=1]: 7 ==> [201046M   -SOCIEDADES ORIGINARIAS=1]: 5   <conf:(0.71)> lift:(100.95) lev:(0) conv:(2.32) 
47. [201135M   -HISTORIA ANTIGUA UNIVERSAL (LH)=1]: 7 ==> [201134M   -INTRODUCCION A LAS CIENCIAS SOCIALES (LH)=1]: 5   <conf:(0.71)> lift:(129.8) lev:(0) conv:(2.32) 
48. [201134M   -INTRODUCCION A LAS CIENCIAS SOCIALES (LH)=1]: 7 ==> [201135M   -HISTORIA ANTIGUA UNIVERSAL (LH)=1]: 5   <conf:(0.71)> lift:(129.8) lev:(0) conv:(2.32) 
49. [201135M   -HISTORIA ANTIGUA UNIVERSAL (LH)=1]: 7 ==> [201177M   -CIENCIAS Y TECNICAS HISTORIOGRAFICAS=1, 201046M   -SOCIEDADES ORIGINARIAS=1]: 5   <conf:(0.71)> lift:(151.43) lev:(0) conv:(2.32) 
50. [201135M   -HISTORIA ANTIGUA UNIVERSAL (LH)=1]: 7 ==> [201165M   -INTRODUCCION A LA PEDAGOGIA=1, 201046M   -SOCIEDADES ORIGINARIAS=1]: 5   <conf:(0.71)> lift:(181.71) lev:(0) conv:(2.32) 

