=== Run information ===

Scheme:       weka.associations.FPGrowth -P 2 -I -1 -N 55 -T 0 -C 0.8 -D 0.05 -U 1.0 -M 7.0
Relation:     cancelaciones_pedagogia
Instances:    932
Attributes:   306
[list of attributes omitted]
=== Associator model (full training set) ===

FPGrowth found 55 rules (displaying top 55)

 1. [405094M   -PRACTICA PROFESIONAL I=1]: 8 ==> [405079M   -SEMINARIO DE PRACTICA PROFESIONAL I=1]: 8   <conf:(1)> lift:(116.5) lev:(0.01) conv:(7.93) 
 2. [405079M   -SEMINARIO DE PRACTICA PROFESIONAL I=1]: 8 ==> [405094M   -PRACTICA PROFESIONAL I=1]: 8   <conf:(1)> lift:(116.5) lev:(0.01) conv:(7.93) 
 3. [405095M   -TRABAJO DE GRADO I=1]: 7 ==> [405094M   -PRACTICA PROFESIONAL I=1]: 7   <conf:(1)> lift:(116.5) lev:(0.01) conv:(6.94) 
 4. [405081M   -SEMINARIO DE TRABAJO DE GRADO I=1]: 7 ==> [405094M   -PRACTICA PROFESIONAL I=1]: 7   <conf:(1)> lift:(116.5) lev:(0.01) conv:(6.94) 
 5. [405095M   -TRABAJO DE GRADO I=1]: 7 ==> [405079M   -SEMINARIO DE PRACTICA PROFESIONAL I=1]: 7   <conf:(1)> lift:(116.5) lev:(0.01) conv:(6.94) 
 6. [405081M   -SEMINARIO DE TRABAJO DE GRADO I=1]: 7 ==> [405079M   -SEMINARIO DE PRACTICA PROFESIONAL I=1]: 7   <conf:(1)> lift:(116.5) lev:(0.01) conv:(6.94) 
 7. [405095M   -TRABAJO DE GRADO I=1]: 7 ==> [405081M   -SEMINARIO DE TRABAJO DE GRADO I=1]: 7   <conf:(1)> lift:(133.14) lev:(0.01) conv:(6.95) 
 8. [405081M   -SEMINARIO DE TRABAJO DE GRADO I=1]: 7 ==> [405095M   -TRABAJO DE GRADO I=1]: 7   <conf:(1)> lift:(133.14) lev:(0.01) conv:(6.95) 
 9. [405095M   -TRABAJO DE GRADO I=1]: 7 ==> [405094M   -PRACTICA PROFESIONAL I=1, 405079M   -SEMINARIO DE PRACTICA PROFESIONAL I=1]: 7   <conf:(1)> lift:(116.5) lev:(0.01) conv:(6.94) 
10. [405094M   -PRACTICA PROFESIONAL I=1, 405095M   -TRABAJO DE GRADO I=1]: 7 ==> [405079M   -SEMINARIO DE PRACTICA PROFESIONAL I=1]: 7   <conf:(1)> lift:(116.5) lev:(0.01) conv:(6.94) 
11. [405079M   -SEMINARIO DE PRACTICA PROFESIONAL I=1, 405095M   -TRABAJO DE GRADO I=1]: 7 ==> [405094M   -PRACTICA PROFESIONAL I=1]: 7   <conf:(1)> lift:(116.5) lev:(0.01) conv:(6.94) 
12. [405081M   -SEMINARIO DE TRABAJO DE GRADO I=1]: 7 ==> [405094M   -PRACTICA PROFESIONAL I=1, 405079M   -SEMINARIO DE PRACTICA PROFESIONAL I=1]: 7   <conf:(1)> lift:(116.5) lev:(0.01) conv:(6.94) 
13. [405094M   -PRACTICA PROFESIONAL I=1, 405081M   -SEMINARIO DE TRABAJO DE GRADO I=1]: 7 ==> [405079M   -SEMINARIO DE PRACTICA PROFESIONAL I=1]: 7   <conf:(1)> lift:(116.5) lev:(0.01) conv:(6.94) 
14. [405079M   -SEMINARIO DE PRACTICA PROFESIONAL I=1, 405081M   -SEMINARIO DE TRABAJO DE GRADO I=1]: 7 ==> [405094M   -PRACTICA PROFESIONAL I=1]: 7   <conf:(1)> lift:(116.5) lev:(0.01) conv:(6.94) 
15. [405095M   -TRABAJO DE GRADO I=1]: 7 ==> [405094M   -PRACTICA PROFESIONAL I=1, 405081M   -SEMINARIO DE TRABAJO DE GRADO I=1]: 7   <conf:(1)> lift:(133.14) lev:(0.01) conv:(6.95) 
16. [405094M   -PRACTICA PROFESIONAL I=1, 405095M   -TRABAJO DE GRADO I=1]: 7 ==> [405081M   -SEMINARIO DE TRABAJO DE GRADO I=1]: 7   <conf:(1)> lift:(133.14) lev:(0.01) conv:(6.95) 
17. [405081M   -SEMINARIO DE TRABAJO DE GRADO I=1]: 7 ==> [405094M   -PRACTICA PROFESIONAL I=1, 405095M   -TRABAJO DE GRADO I=1]: 7   <conf:(1)> lift:(133.14) lev:(0.01) conv:(6.95) 
18. [405094M   -PRACTICA PROFESIONAL I=1, 405081M   -SEMINARIO DE TRABAJO DE GRADO I=1]: 7 ==> [405095M   -TRABAJO DE GRADO I=1]: 7   <conf:(1)> lift:(133.14) lev:(0.01) conv:(6.95) 
19. [405095M   -TRABAJO DE GRADO I=1, 405081M   -SEMINARIO DE TRABAJO DE GRADO I=1]: 7 ==> [405094M   -PRACTICA PROFESIONAL I=1]: 7   <conf:(1)> lift:(116.5) lev:(0.01) conv:(6.94) 
20. [405095M   -TRABAJO DE GRADO I=1]: 7 ==> [405079M   -SEMINARIO DE PRACTICA PROFESIONAL I=1, 405081M   -SEMINARIO DE TRABAJO DE GRADO I=1]: 7   <conf:(1)> lift:(133.14) lev:(0.01) conv:(6.95) 
21. [405079M   -SEMINARIO DE PRACTICA PROFESIONAL I=1, 405095M   -TRABAJO DE GRADO I=1]: 7 ==> [405081M   -SEMINARIO DE TRABAJO DE GRADO I=1]: 7   <conf:(1)> lift:(133.14) lev:(0.01) conv:(6.95) 
22. [405081M   -SEMINARIO DE TRABAJO DE GRADO I=1]: 7 ==> [405079M   -SEMINARIO DE PRACTICA PROFESIONAL I=1, 405095M   -TRABAJO DE GRADO I=1]: 7   <conf:(1)> lift:(133.14) lev:(0.01) conv:(6.95) 
23. [405079M   -SEMINARIO DE PRACTICA PROFESIONAL I=1, 405081M   -SEMINARIO DE TRABAJO DE GRADO I=1]: 7 ==> [405095M   -TRABAJO DE GRADO I=1]: 7   <conf:(1)> lift:(133.14) lev:(0.01) conv:(6.95) 
24. [405095M   -TRABAJO DE GRADO I=1, 405081M   -SEMINARIO DE TRABAJO DE GRADO I=1]: 7 ==> [405079M   -SEMINARIO DE PRACTICA PROFESIONAL I=1]: 7   <conf:(1)> lift:(116.5) lev:(0.01) conv:(6.94) 
25. [405095M   -TRABAJO DE GRADO I=1]: 7 ==> [405094M   -PRACTICA PROFESIONAL I=1, 405079M   -SEMINARIO DE PRACTICA PROFESIONAL I=1, 405081M   -SEMINARIO DE TRABAJO DE GRADO I=1]: 7   <conf:(1)> lift:(133.14) lev:(0.01) conv:(6.95) 
26. [405094M   -PRACTICA PROFESIONAL I=1, 405095M   -TRABAJO DE GRADO I=1]: 7 ==> [405079M   -SEMINARIO DE PRACTICA PROFESIONAL I=1, 405081M   -SEMINARIO DE TRABAJO DE GRADO I=1]: 7   <conf:(1)> lift:(133.14) lev:(0.01) conv:(6.95) 
27. [405079M   -SEMINARIO DE PRACTICA PROFESIONAL I=1, 405095M   -TRABAJO DE GRADO I=1]: 7 ==> [405094M   -PRACTICA PROFESIONAL I=1, 405081M   -SEMINARIO DE TRABAJO DE GRADO I=1]: 7   <conf:(1)> lift:(133.14) lev:(0.01) conv:(6.95) 
28. [405094M   -PRACTICA PROFESIONAL I=1, 405079M   -SEMINARIO DE PRACTICA PROFESIONAL I=1, 405095M   -TRABAJO DE GRADO I=1]: 7 ==> [405081M   -SEMINARIO DE TRABAJO DE GRADO I=1]: 7   <conf:(1)> lift:(133.14) lev:(0.01) conv:(6.95) 
29. [405081M   -SEMINARIO DE TRABAJO DE GRADO I=1]: 7 ==> [405094M   -PRACTICA PROFESIONAL I=1, 405079M   -SEMINARIO DE PRACTICA PROFESIONAL I=1, 405095M   -TRABAJO DE GRADO I=1]: 7   <conf:(1)> lift:(133.14) lev:(0.01) conv:(6.95) 
30. [405094M   -PRACTICA PROFESIONAL I=1, 405081M   -SEMINARIO DE TRABAJO DE GRADO I=1]: 7 ==> [405079M   -SEMINARIO DE PRACTICA PROFESIONAL I=1, 405095M   -TRABAJO DE GRADO I=1]: 7   <conf:(1)> lift:(133.14) lev:(0.01) conv:(6.95) 
31. [405079M   -SEMINARIO DE PRACTICA PROFESIONAL I=1, 405081M   -SEMINARIO DE TRABAJO DE GRADO I=1]: 7 ==> [405094M   -PRACTICA PROFESIONAL I=1, 405095M   -TRABAJO DE GRADO I=1]: 7   <conf:(1)> lift:(133.14) lev:(0.01) conv:(6.95) 
32. [405094M   -PRACTICA PROFESIONAL I=1, 405079M   -SEMINARIO DE PRACTICA PROFESIONAL I=1, 405081M   -SEMINARIO DE TRABAJO DE GRADO I=1]: 7 ==> [405095M   -TRABAJO DE GRADO I=1]: 7   <conf:(1)> lift:(133.14) lev:(0.01) conv:(6.95) 
33. [405095M   -TRABAJO DE GRADO I=1, 405081M   -SEMINARIO DE TRABAJO DE GRADO I=1]: 7 ==> [405094M   -PRACTICA PROFESIONAL I=1, 405079M   -SEMINARIO DE PRACTICA PROFESIONAL I=1]: 7   <conf:(1)> lift:(116.5) lev:(0.01) conv:(6.94) 
34. [405094M   -PRACTICA PROFESIONAL I=1, 405095M   -TRABAJO DE GRADO I=1, 405081M   -SEMINARIO DE TRABAJO DE GRADO I=1]: 7 ==> [405079M   -SEMINARIO DE PRACTICA PROFESIONAL I=1]: 7   <conf:(1)> lift:(116.5) lev:(0.01) conv:(6.94) 
35. [405079M   -SEMINARIO DE PRACTICA PROFESIONAL I=1, 405095M   -TRABAJO DE GRADO I=1, 405081M   -SEMINARIO DE TRABAJO DE GRADO I=1]: 7 ==> [405094M   -PRACTICA PROFESIONAL I=1]: 7   <conf:(1)> lift:(116.5) lev:(0.01) conv:(6.94) 
36. [403088M   -INTRODUCCION A LAS CIENCIAS SOCIALES=1]: 10 ==> [403086M   -METODOS Y TECNICAS DE LA FORMACION ACADEMICA=1]: 9   <conf:(0.9)> lift:(22.67) lev:(0.01) conv:(4.8) 
37. [403088M   -INTRODUCCION A LAS CIENCIAS SOCIALES=1]: 10 ==> [403087M   -COMPOSICION ESCRITA=1]: 9   <conf:(0.9)> lift:(55.92) lev:(0.01) conv:(4.92) 
38. [403086M   -METODOS Y TECNICAS DE LA FORMACION ACADEMICA=1, 403088M   -INTRODUCCION A LAS CIENCIAS SOCIALES=1]: 9 ==> [403087M   -COMPOSICION ESCRITA=1]: 8   <conf:(0.89)> lift:(55.23) lev:(0.01) conv:(4.43) 
39. [403087M   -COMPOSICION ESCRITA=1, 403088M   -INTRODUCCION A LAS CIENCIAS SOCIALES=1]: 9 ==> [403086M   -METODOS Y TECNICAS DE LA FORMACION ACADEMICA=1]: 8   <conf:(0.89)> lift:(22.39) lev:(0.01) conv:(4.32) 
40. [405094M   -PRACTICA PROFESIONAL I=1]: 8 ==> [405095M   -TRABAJO DE GRADO I=1]: 7   <conf:(0.88)> lift:(116.5) lev:(0.01) conv:(3.97) 
41. [405094M   -PRACTICA PROFESIONAL I=1]: 8 ==> [405081M   -SEMINARIO DE TRABAJO DE GRADO I=1]: 7   <conf:(0.88)> lift:(116.5) lev:(0.01) conv:(3.97) 
42. [405079M   -SEMINARIO DE PRACTICA PROFESIONAL I=1]: 8 ==> [405095M   -TRABAJO DE GRADO I=1]: 7   <conf:(0.88)> lift:(116.5) lev:(0.01) conv:(3.97) 
43. [405079M   -SEMINARIO DE PRACTICA PROFESIONAL I=1]: 8 ==> [405081M   -SEMINARIO DE TRABAJO DE GRADO I=1]: 7   <conf:(0.88)> lift:(116.5) lev:(0.01) conv:(3.97) 
44. [405094M   -PRACTICA PROFESIONAL I=1]: 8 ==> [405079M   -SEMINARIO DE PRACTICA PROFESIONAL I=1, 405095M   -TRABAJO DE GRADO I=1]: 7   <conf:(0.88)> lift:(116.5) lev:(0.01) conv:(3.97) 
45. [405079M   -SEMINARIO DE PRACTICA PROFESIONAL I=1]: 8 ==> [405094M   -PRACTICA PROFESIONAL I=1, 405095M   -TRABAJO DE GRADO I=1]: 7   <conf:(0.88)> lift:(116.5) lev:(0.01) conv:(3.97) 
46. [405094M   -PRACTICA PROFESIONAL I=1, 405079M   -SEMINARIO DE PRACTICA PROFESIONAL I=1]: 8 ==> [405095M   -TRABAJO DE GRADO I=1]: 7   <conf:(0.88)> lift:(116.5) lev:(0.01) conv:(3.97) 
47. [405094M   -PRACTICA PROFESIONAL I=1]: 8 ==> [405079M   -SEMINARIO DE PRACTICA PROFESIONAL I=1, 405081M   -SEMINARIO DE TRABAJO DE GRADO I=1]: 7   <conf:(0.88)> lift:(116.5) lev:(0.01) conv:(3.97) 
48. [405079M   -SEMINARIO DE PRACTICA PROFESIONAL I=1]: 8 ==> [405094M   -PRACTICA PROFESIONAL I=1, 405081M   -SEMINARIO DE TRABAJO DE GRADO I=1]: 7   <conf:(0.88)> lift:(116.5) lev:(0.01) conv:(3.97) 
49. [405094M   -PRACTICA PROFESIONAL I=1, 405079M   -SEMINARIO DE PRACTICA PROFESIONAL I=1]: 8 ==> [405081M   -SEMINARIO DE TRABAJO DE GRADO I=1]: 7   <conf:(0.88)> lift:(116.5) lev:(0.01) conv:(3.97) 
50. [405094M   -PRACTICA PROFESIONAL I=1]: 8 ==> [405095M   -TRABAJO DE GRADO I=1, 405081M   -SEMINARIO DE TRABAJO DE GRADO I=1]: 7   <conf:(0.88)> lift:(116.5) lev:(0.01) conv:(3.97) 
51. [405079M   -SEMINARIO DE PRACTICA PROFESIONAL I=1]: 8 ==> [405095M   -TRABAJO DE GRADO I=1, 405081M   -SEMINARIO DE TRABAJO DE GRADO I=1]: 7   <conf:(0.88)> lift:(116.5) lev:(0.01) conv:(3.97) 
52. [405094M   -PRACTICA PROFESIONAL I=1]: 8 ==> [405079M   -SEMINARIO DE PRACTICA PROFESIONAL I=1, 405095M   -TRABAJO DE GRADO I=1, 405081M   -SEMINARIO DE TRABAJO DE GRADO I=1]: 7   <conf:(0.88)> lift:(116.5) lev:(0.01) conv:(3.97) 
53. [405079M   -SEMINARIO DE PRACTICA PROFESIONAL I=1]: 8 ==> [405094M   -PRACTICA PROFESIONAL I=1, 405095M   -TRABAJO DE GRADO I=1, 405081M   -SEMINARIO DE TRABAJO DE GRADO I=1]: 7   <conf:(0.88)> lift:(116.5) lev:(0.01) conv:(3.97) 
54. [405094M   -PRACTICA PROFESIONAL I=1, 405079M   -SEMINARIO DE PRACTICA PROFESIONAL I=1]: 8 ==> [405095M   -TRABAJO DE GRADO I=1, 405081M   -SEMINARIO DE TRABAJO DE GRADO I=1]: 7   <conf:(0.88)> lift:(116.5) lev:(0.01) conv:(3.97) 
55. [403087M   -COMPOSICION ESCRITA=1]: 15 ==> [403086M   -METODOS Y TECNICAS DE LA FORMACION ACADEMICA=1]: 13   <conf:(0.87)> lift:(21.83) lev:(0.01) conv:(4.8) 

